<?xml version="1.0" ?>
<svg xmlns="http://www.w3.org/2000/svg" width="25" height="25" viewBox="0 0 25 25">
  <path d="M23 12h-6v-2l3.39-4H17V4h6v2l-3.38 4H23v2m-8 4H9v-2l3.39-4H9V8h6v2l-3.38 4H15v2m-8 4H1v-2l3.39-4H1v-2h6v2l-3.38 4H7v2z" fill="#000"/>
</svg>
