<?xml version="1.0" ?>
<svg xmlns="http://www.w3.org/2000/svg" width="24" height="24" viewBox="0 0 24 24">
  <path d="M15.87 15.25l-3.37-2V8.72c0-0.4-0.32-0.72-0.72-0.72h-0.06C11.32 8 11 8.32 11 8.72v4.72c0 0.35 0.18 0.68 0.49 0.86l3.65 2.19c0.34 0.2 0.78 0.1 0.98-0.24 0.21-0.35 0.1-0.8-0.25-1zm5.31-10.24L18.1 2.45c-0.42-0.35-1.05-0.3-1.41 0.13C16.34 3 16.4 3.63 16.82 3.99l3.07 2.56c0.42 0.35 1.05 0.3 1.41-0.13 0.36-0.42 0.3-1.05-0.12-1.41zM4.1 6.55l3.07-2.56C7.6 3.63 7.66 3 7.3 2.58 6.95 2.15 6.32 2.1 5.9 2.45L2.82 5.01C2.4 5.37 2.34 6 2.7 6.42 3.05 6.85 3.68 6.9 4.1 6.55zM12 4c-4.97 0-9 4.03-9 9s4.03 9 9 9 9-4.03 9-9-4.03-9-9-9zm0 16c-3.86 0-7-3.14-7-7s3.14-7 7-7 7 3.14 7 7-3.14 7-7 7z" fill="#000000"/>
</svg>
