<?xml version="1.0" ?>
<svg xmlns="http://www.w3.org/2000/svg" width="25" height="25" viewBox="0 0 25 25">
  <path d="M11 20v-3H7v3.67C7 21.4 7.6 22 8.33 22h7.33C16.4 22 17 21.4 17 20.67V17h-4.4L11 20z" fill="#000000"/>
  <path d="M15.67 4H14V2h-4v2H8.33C7.6 4 7 4.6 7 5.33V17h4v-2.5H9L13 7v5.5h2L12.6 17H17V5.33C17 4.6 16.4 4 15.67 4z" fill="#000000"/>
</svg>
