<?xml version="1.0" ?>
<svg xmlns="http://www.w3.org/2000/svg" width="24" height="24" viewBox="0 0 24 24">
  <path d="M19 3H5C3.9 3 3 3.9 3 5v14c0 1.1 0.9 2 2 2h14c1.1 0 2-0.9 2-2V5c0-1.1-0.9-2-2-2zm-5.44 3.53c0.29-0.29 0.77-0.29 1.06 0l0.88 0.88 0.88-0.88c0.29-0.29 0.77-0.29 1.06 0 0.29 0.29 0.29 0.77 0 1.06l-0.88 0.88 0.88 0.88c0.29 0.29 0.29 0.77 0 1.06-0.29 0.29-0.77 0.29-1.06 0L15.5 9.54l-0.88 0.88c-0.29 0.29-0.77 0.29-1.06 0-0.29-0.29-0.29-0.77 0-1.06l0.88-0.88-0.88-0.88c-0.3-0.3-0.3-0.78 0-1.07zM7 7.72h3.5c0.41 0 0.75 0.34 0.75 0.75s-0.34 0.75-0.75 0.75H7c-0.41 0-0.75-0.34-0.75-0.75S6.59 7.72 7 7.72zM10.75 16H9.5v1.25C9.5 17.66 9.16 18 8.75 18S8 17.66 8 17.25V16H6.75C6.34 16 6 15.66 6 15.25s0.34-0.75 0.75-0.75H8v-1.25c0-0.41 0.34-0.75 0.75-0.75s0.75 0.34 0.75 0.75v1.25h1.25c0.41 0 0.75 0.34 0.75 0.75S11.16 16 10.75 16zm6.5 1.25h-3.5c-0.41 0-0.75-0.34-0.75-0.75s0.34-0.75 0.75-0.75h3.5c0.41 0 0.75 0.34 0.75 0.75s-0.34 0.75-0.75 0.75zm0-2.5h-3.5C13.34 14.75 13 14.41 13 14s0.34-0.75 0.75-0.75h3.5c0.41 0 0.75 0.34 0.75 0.75s-0.34 0.75-0.75 0.75z" fill="#000000"/>
</svg>
