<?xml version="1.0" ?>
<svg xmlns="http://www.w3.org/2000/svg" width="30" height="30" viewBox="0 0 30 30">
  <path d="M3.871 3.877h20.925a0.947 0.947 0 0 1 0.948 0.947v20.01a0.947 0.947 0 0 1-0.948 0.948H3.871a0.947 0.947 0 0 1-0.947-0.948V4.824a0.947 0.947 0 0 1 0.947-0.947z" fill="#7a7a7a" stroke-width="3.57115173"/>
  <path d="M3.879 3.035h20.925a0.947 0.947 0 0 1 0.947 0.947v20.01a0.947 0.947 0 0 1-0.947 0.948H3.88a0.947 0.947 0 0 1-0.947-0.948V3.982A0.947 0.947 0 0 1 3.88 3.035z" fill="#9f9f9f" stroke-width="3.57115173"/>
  <path d="M3.871 3.413h20.925a0.947 0.947 0 0 1 0.948 0.947v20.01a0.947 0.947 0 0 1-0.948 0.948H3.871a0.947 0.947 0 0 1-0.947-0.948V4.36A0.947 0.947 0 0 1 3.87 3.413z" fill="#8a8a8a" stroke-width="3.57115173"/>
  <path d="M11.342 7.48c-0.814-0.017-0.908 0.155-0.885 0.966-0.72 0.126-1.342 1.159-1.325 2.124l0.005 7.825c0.093 0.883 0.625 1.487 1.32 1.867 0 0.813 0.077 0.99 0.885 0.99h5.81c0.847 0 0.826-0.236 0.805-0.99 0.872-0.416 1.21-0.892 1.295-1.867l0.002-3.437c0.123-0.205 0.151-0.028 0.22 0.05 0.093 0.11 0.213 0.063 0.266-0.09l0.003-1.14c-0.055-0.114-0.1-0.213-0.25-0.117-0.078 0.049-0.11 0.22-0.24 0.085v-3.444c-0.087-0.903-0.473-1.51-1.295-1.838 0.007-0.945-0.06-0.991-0.806-0.98zm0.051 1.427l5.775 0.052c0.805 0.007 1.471 0.828 1.47 1.343l-0.028 7.942c-0.003 0.832-0.717 1.512-1.443 1.512h-5.925c-0.536 0-1.498-0.65-1.492-1.426l0.062-7.878c0.008-0.957 0.761-1.554 1.58-1.546z" fill="#ffffff"/>
  <path d="M11.392 8.907c-0.819-0.007-1.572 0.59-1.58 1.547L9.75 18.33c-0.006 0.776 0.956 1.425 1.492 1.425h5.924c0.725 0 1.44-0.68 1.443-1.512l0.027-7.942c0.002-0.515-0.664-1.336-1.469-1.343zm-0.482 1.812h6.567v6.696H10.91z" fill="#ffffff"/>
</svg>
