<?xml version="1.0" ?>
<svg xmlns="http://www.w3.org/2000/svg" width="24" height="24" viewBox="0 0 24 24">
  <path d="M8.5 8.62v6.76L5.12 12 8.5 8.62m-4.79 2.67c-0.39 0.39-0.39 1.02 0 1.41l4.59 4.59c0.62 0.63 1.7 0.19 1.7-0.7V7.41c0-0.89-1.08-1.34-1.71-0.71l-4.58 4.59zM14 7.41v9.17c0 0.89 1.08 1.34 1.71 0.71l4.59-4.59c0.39-0.39 0.39-1.02 0-1.41L15.71 6.7C15.08 6.08 14 6.52 14 7.41z" fill="#000000"/>
</svg>
