<?xml version="1.0" ?>
<svg xmlns="http://www.w3.org/2000/svg" width="24" height="24" viewBox="0 0 24 24">
  <path d="M22 9v6c0 1.1-0.9 2-2 2h-1v-2h1V9H4v6h6v2H4c-1.1 0-2-0.9-2-2V9c0-1.1 0.9-2 2-2h16c1.1 0 2 0.9 2 2zm-7.96 8.99c0.18 0.39 0.73 0.39 0.91 0l0.63-1.4 1.4-0.63c0.39-0.18 0.39-0.73 0-0.91l-1.4-0.63-0.63-1.4c-0.18-0.39-0.73-0.39-0.91 0l-0.63 1.4-1.4 0.63c-0.39 0.18-0.39 0.73 0 0.91l1.4 0.63 0.63 1.4zm2.7-4.56c0.1 0.22 0.42 0.22 0.52 0l0.36-0.8 0.8-0.36c0.22-0.1 0.22-0.42 0-0.52l-0.8-0.36-0.36-0.8c-0.1-0.22-0.42-0.22-0.52 0l-0.36 0.8-0.8 0.36c-0.22 0.1-0.22 0.42 0 0.52l0.8 0.36 0.36 0.8z" fill="#000000"/>
</svg>
